^D:\VISUAL STUDIO PROJECTS\HOMEWORK_16.5\HOMEWORK_16.5.CPP
D:\VISUAL STUDIO PROJECTS\HOMEWORK_16.5\DEBUG\VC142.PDB
D:\VISUAL STUDIO PROJECTS\HOMEWORK_16.5\DEBUG\VC142.IDB
D:\VISUAL STUDIO PROJECTS\HOMEWORK_16.5\DEBUG\HOMEWORK_16.5.OBJ
